[
{
"uid":261594365,
"first_name":"Fire",
"last_name":"Storm",
"photo_200":"http://cs617721.vk.me/v617721365/11c25/V4-qffH0HNk.jpg"
},
{
"uid":295340834,
"first_name":"Хорнет",
"last_name":"Гром",
"photo_200":"http://cs631428.vk.me/v631428834/2decd/wqtRPco8V_A.jpg",
"hidden":1
},
{
"uid":196167,
"first_name":"Анастасия",
"last_name":"Новикова",
"photo_200":"http://cs633518.vk.me/v633518167/2b55b/XtKC3q3C-Cs.jpg",
"hidden":1
},
{
"uid":4771158,
"first_name":"Костя",
"last_name":"Артемьев",
"photo_200":"http://cs630517.vk.me/v630517158/2b456/GWMNYxfj754.jpg"
},
{
"uid":13230760,
"first_name":"Александр",
"last_name":"Смолянов",
"photo_200":"http://cs629223.vk.me/v629223760/7bf1e/n4CS2LSUi6c.jpg"
},
{
"uid":27216716,
"first_name":"Елена",
"last_name":"Руденко",
"photo_200":"http://cs629403.vk.me/v629403716/4c49e/JypiO6_L7QA.jpg",
"hidden":1
},
{
"uid":55094102,
"first_name":"Сергей",
"last_name":"Чуркин",
"photo_200":"http://cs626525.vk.me/v626525102/6a76/p-iy_bKJdyc.jpg"
},
{
"uid":89045804,
"first_name":"Алексей",
"last_name":"Уваров",
"photo_200":"http://cs621717.vk.me/v621717804/307a4/hDsN6zg1YP8.jpg",
"hidden":1
},
{
"uid":106746509,
"first_name":"Ильгиз",
"last_name":"Хасанов",
"photo_200":"http://cs633329.vk.me/v633329509/2dc4e/BN-akZJH-G4.jpg",
"hidden":1
}
]
